<?xml version="1.0" encoding="utf-8"?>
<!-- Generator: Adobe Illustrator 21.0.2, SVG Export Plug-In . SVG Version: 6.00 Build 0)  -->
<svg version="1.1" id="Modo_de_aislamiento" xmlns="http://www.w3.org/2000/svg" xmlns:xlink="http://www.w3.org/1999/xlink"
	 x="0px" y="0px" viewBox="0 0 595.3 793.7" style="enable-background:new 0 0 595.3 793.7;" xml:space="preserve">
<style type="text/css">
	.st0{fill:#259558;}
	.st1{fill:#FFFFFF;}
</style>
<g>
	<path class="st0" d="M510.4,126.9L531,90.3H338.7l-40.9,67.9l-40.9-67.9H64.5l20.6,36.6H234l6.2,12.6H129.3l22.1,41.1h111.4
		l16.8,21.4v33.5c0,0-15.5-3.4-17.5-28.3h-39.9c0,0,1.4,30,18.8,48.7c0,0-20.7,18.7-18.6,53.9c0,0,3.5,28.6,18.1,46.2
		c0,0-18.1,23.7-18,48.6h40.3c0,0-1.7-18.3,18.2-30.7v29.5h2.9h11.7h18.9v-29.5c20,12.4,18.3,30.7,18.3,30.7H373
		c0.2-24.9-18-48.6-18-48.6c14.7-17.6,18.2-46.2,18.2-46.2c2-35.2-18.6-53.9-18.6-53.9c17.5-18.7,18.8-48.7,18.8-48.7h-39.9
		c-2,24.9-17.4,28.3-17.4,28.3V202l16.7-21.4h111.3l22.2-41.1h-111l6.3-12.6H510.4z M279.7,335c-15.2-2-17.2-29.2-17.2-29.2
		c2.5-24.6,17.2-30.2,17.2-30.2V335z M333,305.8c0,0-2.1,27.2-17.2,29.2v-59.4C315.8,275.5,330.5,281.2,333,305.8"/>
	<polygon class="st1" points="57.6,548.6 57.6,458.6 105.3,458.6 105.3,472.3 76.8,472.3 76.8,495.6 104,495.6 104,509.4 
		76.8,509.4 76.8,548.6 	"/>
	<polygon class="st1" points="114.4,548.6 114.4,458.6 164.5,458.6 164.5,472.3 133.5,472.3 133.5,494.5 162,494.5 162,508.2 
		133.5,508.2 133.5,534.8 165.4,534.8 165.4,548.6 	"/>
	<polygon class="st1" points="178.2,548.6 178.2,458.6 204.1,458.6 228.6,520.9 228.8,520.9 228.8,458.6 246.6,458.6 246.6,548.6 
		221.4,548.6 196.3,482.8 196.1,482.8 196.1,548.6 	"/>
	<path class="st1" d="M302.1,514.8h-18.2l8.7-38.8h0.3L302.1,514.8z M274.9,548.6l5.1-20h26.2l5.1,20h20.2l-25-90h-25.2l-25.5,90
		H274.9z"/>
	<polygon class="st1" points="340.8,548.6 340.8,458.6 359.9,458.6 359.9,533.7 388.7,533.7 388.7,548.6 	"/>
	<path class="st1" d="M396.2,503.6c0-23.8,0-46.5,31.6-46.5c19.6,0,27.5,10.6,26.7,30h-18.8c0-12-2.1-16.6-7.9-16.6
		c-10.9,0-12.3,10-12.3,33c0,23.1,1.4,33.1,12.3,33.1c9,0,8.5-11.2,8.9-18.4h18.9c0,24.1-9.8,31.8-27.8,31.8
		C396.2,550.1,396.2,527.1,396.2,503.6"/>
	<path class="st1" d="M498.6,536.6c-10.9,0-12.3-9.9-12.3-33c0-23,1.4-33,12.3-33c10.8,0,12.3,10,12.3,33
		C510.9,526.7,509.4,536.6,498.6,536.6 M498.6,550c31.7,0,31.7-22.9,31.7-46.5c0-23.8,0-46.5-31.7-46.5c-31.6,0-31.6,22.7-31.6,46.5
		C467,527.1,467,550,498.6,550"/>
	<polygon class="st1" points="57.2,631.6 57.2,590.9 65.8,590.9 65.8,624.8 78.7,624.8 78.7,631.6 	"/>
	<path class="st1" d="M99.9,616.4h-8.1l3.8-17.6h0.2L99.9,616.4z M87.7,631.6l2.4-9h11.7l2.3,9h9l-11.1-40.7H90.6l-11.4,40.7H87.7z"
		/>
	<polygon class="st1" points="129.7,631.6 129.7,590.9 151,590.9 151,597.2 138.3,597.2 138.3,607.6 150.4,607.6 150.4,613.9 
		138.3,613.9 138.3,631.6 	"/>
	<path class="st1" d="M182.8,591v28.9c0,6-3.5,12.4-14,12.4c-9.4,0-13.9-4.8-13.9-12.4V591h8.5v28.3c0,5,2.1,7,5.3,7
		c3.7,0,5.4-2.4,5.4-7V591H182.8z"/>
	<polygon class="st1" points="189.8,631.6 189.8,590.9 212.2,590.9 212.2,597.2 198.3,597.2 198.3,607.3 211.1,607.3 211.1,613.6 
		198.3,613.6 198.3,625.4 212.6,625.4 212.6,631.6 	"/>
	<path class="st1" d="M226.7,597.2h3.9c2.7,0,4.4,1.5,4.4,5.4c0,2.7-1,6.1-4.4,6.1h-3.9V597.2z M226.7,614.8h2.2
		c6.7,0,6.2,4.2,6.2,9c0,2.5-0.3,5.4,0.9,7.8h8.5c-0.8-1.7-1-9.3-1-11.9c0-7.4-5.6-7.8-7.5-8v0c5.5-1,7.7-4.9,7.7-10.2
		c0-6.9-3.7-10.6-9.7-10.6h-15.7v40.7h8.4V614.8z"/>
	<polygon class="st1" points="248.3,591 273.1,591 273.1,598.3 255.9,625.4 273.5,625.4 273.5,631.7 247.6,631.7 247.6,624.2 
		264.8,597.2 248.3,597.2 	"/>
	<path class="st1" d="M295.8,616.4h-8.1l3.9-17.6h0.2L295.8,616.4z M283.6,631.6l2.4-9h11.8l2.2,9h9.1l-11.2-40.7h-11.3l-11.3,40.7
		H283.6z"/>
	<path class="st1" d="M339.6,626.1c-4.9,0-5.6-4.6-5.6-14.7c0-10.5,0.7-15,5.6-15c4.8,0,5.4,4.5,5.4,15
		C345,621.5,344.3,626.1,339.6,626.1 M356.7,625.4h-3.5c-0.9,0-3.1,1.1-4.3,1.4l-0.2-0.1c3.5-2.8,5.1-6.6,5.1-15.3
		c0-10.8,0-21.1-14.2-21.1c-14.3,0-14.3,10.3-14.3,21.1c0,14.2,1.6,20.7,14.3,20.7c1.7,0,3.6-0.4,5-0.4h12.1V625.4z"/>
	<path class="st1" d="M388.2,591v28.9c0,6-3.4,12.4-13.9,12.4c-9.4,0-14-4.8-14-12.4V591h8.6v28.3c0,5,2.1,7,5.2,7
		c3.7,0,5.5-2.4,5.5-7V591H388.2z"/>
	<polygon class="st1" points="395.2,631.6 395.2,590.9 417.7,590.9 417.7,597.2 403.8,597.2 403.8,607.3 416.5,607.3 416.5,613.6 
		403.8,613.6 403.8,625.4 418.1,625.4 418.1,631.6 	"/>
	<path class="st1" d="M464.1,591v28.9c0,6-3.5,12.4-13.8,12.4c-9.4,0-13.9-4.8-13.9-12.4V591h8.6v28.3c0,5,2.1,7,5.2,7
		c3.7,0,5.4-2.4,5.4-7V591H464.1z"/>
	<polygon class="st1" points="471.2,631.6 471.2,590.9 482.8,590.9 493.7,619.1 493.8,619.1 493.8,590.9 501.8,590.9 501.8,631.6 
		490.5,631.6 479.2,601.9 479.1,601.9 479.1,631.6 	"/>
	<polygon class="st1" points="509,631.6 509,590.9 531.4,590.9 531.4,597.2 517.6,597.2 517.6,607.3 530.4,607.3 530.4,613.6 
		517.6,613.6 517.6,625.4 531.9,625.4 531.9,631.6 	"/>
	<rect x="54.8" y="566.3" class="st0" width="474.4" height="8.1"/>
	<polygon class="st1" points="71.8,688.4 65.7,688.4 53.9,647.7 59.5,647.7 68.8,683.5 68.9,683.5 78.4,647.7 83.7,647.7 	"/>
	<path class="st1" d="M109.9,674.2H96.8l6.4-21.7h0.1L109.9,674.2z M87.2,688.4h5.3l3-9.7h15.8l2.9,9.7h5.8l-13.3-40.7h-6.6
		L87.2,688.4z"/>
	<polygon class="st1" points="129.5,688.4 129.5,647.7 134.6,647.7 134.6,683.9 149.5,683.9 149.5,688.4 	"/>
	<polygon class="st1" points="158.5,688.4 158.5,647.7 163.7,647.7 163.7,683.9 178.5,683.9 178.5,688.4 	"/>
	<polygon class="st1" points="187.6,688.4 187.6,647.7 208.5,647.7 208.5,652.1 192.7,652.1 192.7,665.3 207.3,665.3 207.3,669.8 
		192.7,669.8 192.7,683.9 208.8,683.9 208.8,688.4 	"/>
	<path class="st1" d="M241.6,652.1h6.8c5.5,0,8,3.1,8,11.3v8.2c0,9.5-2.6,12.2-9.8,12.2h-5V652.1z M236.4,688.4h9.4
		c7.1,0,11.2-1.8,13.4-5.2c1.7-2.7,2.4-7.7,2.4-16.4c0-1.3-0.2-9.5-1.8-12.9c-2-4.4-5.7-6.2-11-6.2h-12.6V688.4z"/>
	<polygon class="st1" points="274.8,688.4 274.8,647.7 295.7,647.7 295.7,652.1 280,652.1 280,665.3 294.6,665.3 294.6,669.8 
		280,669.8 280,683.9 296,683.9 296,688.4 	"/>
	<polygon class="st1" points="307,688.4 307,647.7 312.3,647.7 312.3,683.9 327.1,683.9 327.1,688.4 	"/>
	<path class="st1" d="M370.6,658.8c0-2.2-0.2-4.6-1.2-5.9c-1.1-1.3-3.5-1.7-4.6-1.7c-4.3,0-6,2.5-6.2,3.1c-0.2,0.5-1.1,1.5-1.1,8.5
		v10.9c0,10,3.2,11.2,7.2,11.2c1.5,0,6.3-0.6,6.4-8.6h5.4c0.2,12.8-8.9,12.8-11.5,12.8c-5,0-12.8-0.3-12.8-16.1v-11.5
		c0-11.6,5-14.7,13-14.7c8,0,11.2,4.1,10.7,11.9H370.6z"/>
	<path class="st1" d="M407,674.2h-13l6.3-21.7h0.2L407,674.2z M384.4,688.4h5.2l3-9.7h15.8l2.9,9.7h5.8l-13.3-40.7h-6.6L384.4,688.4
		z"/>
	<path class="st1" d="M426.4,647.6h5.1v26.1c0,9,2.7,11.2,7.6,11.2c4.9,0,7.6-2.3,7.6-11.2v-26.1h5.2v25.9
		c0,11.3-4.3,15.7-12.8,15.7c-8.6,0-12.8-4.4-12.8-15.7V647.6z"/>
	<path class="st1" d="M482.9,658.8c0-2.2-0.1-4.6-1.2-5.9c-1.1-1.3-3.5-1.7-4.5-1.7c-4.4,0-6,2.5-6.2,3.1c-0.2,0.5-1.2,1.5-1.2,8.5
		v10.9c0,10,3.2,11.2,7.3,11.2c1.6,0,6.4-0.6,6.5-8.6h5.3c0.1,12.8-8.8,12.8-11.5,12.8c-5,0-12.8-0.3-12.8-16.1v-11.5
		c0-11.6,5-14.7,13-14.7c8.1,0,11.1,4.1,10.7,11.9H482.9z"/>
	<path class="st1" d="M519.3,674.2h-13l6.3-21.7h0.2L519.3,674.2z M496.7,688.4h5.3l3-9.7h15.8l2.9,9.7h5.8l-13.4-40.7h-6.5
		L496.7,688.4z"/>
</g>
</svg>
